{
    "first": "https://localhost:5001/api/search/genres/fantasy,horror,drama?page=0&pageSize=20",
    "prev": null,
    "next": "https://localhost:5001/api/search/genres/fantasy,horror,drama?page=1&pageSize=20",
    "current": "https://localhost:5001/api/search/genres/fantasy,horror,drama?page=0&pageSize=20",
    "total": 36009,
    "pages": 1801,
    "items": [
        {
            "title": "The Bard",
            "rank": 3,
            "url": "https://localhost:5001/api/title/tt0734630"
        },
        {
            "title": "Judgment Night",
            "rank": 3,
            "url": "https://localhost:5001/api/title/tt0734582"
        },
        {
            "title": "Kick the Can",
            "rank": 3,
            "url": "https://localhost:5001/api/title/tt0734583"
        },
        {
            "title": "A Piano in the House",
            "rank": 3,
            "url": "https://localhost:5001/api/title/tt0734547"
        },
        {
            "title": "Tumbbad",
            "rank": 3,
            "url": "https://localhost:5001/api/title/tt8239946"
        },
        {
            "title": "A Quality of Mercy",
            "rank": 3,
            "url": "https://localhost:5001/api/title/tt0734548"
        },
        {
            "title": "Tagged",
            "rank": 3,
            "url": "https://localhost:5001/api/title/tt0734804"
        },
        {
            "title": "King Nine Will Not Return",
            "rank": 3,
            "url": "https://localhost:5001/api/title/tt0734584"
        },
        {
            "title": "Little Girl Lost",
            "rank": 3,
            "url": "https://localhost:5001/api/title/tt0734585"
        },
        {
            "title": "The Pool Guy",
            "rank": 3,
            "url": "https://localhost:5001/api/title/tt0734810"
        },
        {
            "title": "Living Doll",
            "rank": 3,
            "url": "https://localhost:5001/api/title/tt0734586"
        },
        {
            "title": "Witch 2",
            "rank": 3,
            "url": "https://localhost:5001/api/title/tt8017700"
        },
        {
            "title": "Long Distance Call",
            "rank": 3,
            "url": "https://localhost:5001/api/title/tt0734587"
        },
        {
            "title": "Nightmare at 30,000 Feet",
            "rank": 3,
            "url": "https://localhost:5001/api/title/tt9121550"
        },
        {
            "title": "A Traveler",
            "rank": 3,
            "url": "https://localhost:5001/api/title/tt9121554"
        },
        {
            "title": "A Short Drink from a Certain Fountain",
            "rank": 3,
            "url": "https://localhost:5001/api/title/tt0734549"
        },
        {
            "title": "Long Live Walter Jameson",
            "rank": 3,
            "url": "https://localhost:5001/api/title/tt0734588"
        },
        {
            "title": "Miniature",
            "rank": 3,
            "url": "https://localhost:5001/api/title/tt0734589"
        },
        {
            "title": "Mirror Image",
            "rank": 3,
            "url": "https://localhost:5001/api/title/tt0734590"
        },
        {
            "title": "Mr. Bevis",
            "rank": 3,
            "url": "https://localhost:5001/api/title/tt0734591"
        }
    ]
}