{
    "first": "https://localhost:5001/api/search/titles/scarlett%20avengers%20civil%20war?page=0&pageSize=20",
    "prev": null,
    "next": "https://localhost:5001/api/search/titles/scarlett%20avengers%20civil%20war?page=1&pageSize=20",
    "current": "https://localhost:5001/api/search/titles/scarlett%20avengers%20civil%20war?page=0&pageSize=20",
    "total": 2126,
    "pages": 107,
    "items": [
        {
            "title": "Captain America: Civil War",
            "rank": 4,
            "url": "https://localhost:5001/api/title/tt3498820"
        },
        {
            "title": "Secret Avengers: The Coldest War",
            "rank": 3,
            "url": "https://localhost:5001/api/title/tt13267444"
        },
        {
            "title": "Brownstones to Red Dirt",
            "rank": 2,
            "url": "https://localhost:5001/api/title/tt1479190"
        },
        {
            "title": "La maleta mexicana",
            "rank": 2,
            "url": "https://localhost:5001/api/title/tt2017015"
        },
        {
            "title": "The Avengers",
            "rank": 2,
            "url": "https://localhost:5001/api/title/tt0848228"
        },
        {
            "title": "The Medal of Honor: The Stories of Our Nation's Most Celebrated Heroes",
            "rank": 2,
            "url": "https://localhost:5001/api/title/tt2134100"
        },
        {
            "title": "Swimming",
            "rank": 2,
            "url": "https://localhost:5001/api/title/tt1317484"
        },
        {
            "title": "Somalia: The Forgotten Story",
            "rank": 2,
            "url": "https://localhost:5001/api/title/tt6212268"
        },
        {
            "title": "August Light: Wilson's Creek and the Battle for Missouri",
            "rank": 2,
            "url": "https://localhost:5001/api/title/tt2137976"
        },
        {
            "title": "An American Posada",
            "rank": 2,
            "url": "https://localhost:5001/api/title/tt15654140"
        },
        {
            "title": "The Passersby",
            "rank": 2,
            "url": "https://localhost:5001/api/title/tt0734671"
        },
        {
            "title": "A Class Apart",
            "rank": 2,
            "url": "https://localhost:5001/api/title/tt1356396"
        },
        {
            "title": "Inside Syria's Deadly Dynasty",
            "rank": 2,
            "url": "https://localhost:5001/api/title/tt10948588"
        },
        {
            "title": "Crayons and Paper",
            "rank": 2,
            "url": "https://localhost:5001/api/title/tt1357377"
        },
        {
            "title": "The Avengers Assemble Premiere",
            "rank": 2,
            "url": "https://localhost:5001/api/title/tt10075836"
        },
        {
            "title": "Bolo gaseirneba",
            "rank": 2,
            "url": "https://localhost:5001/api/title/tt2524172"
        },
        {
            "title": "Over the Sky of Azerbaijan",
            "rank": 2,
            "url": "https://localhost:5001/api/title/tt2526974"
        },
        {
            "title": "The Road to Aleppo",
            "rank": 2,
            "url": "https://localhost:5001/api/title/tt5167676"
        },
        {
            "title": "Pushing the Elephant",
            "rank": 2,
            "url": "https://localhost:5001/api/title/tt1693860"
        },
        {
            "title": "Emboscats. Memòria d'una geografia secreta",
            "rank": 2,
            "url": "https://localhost:5001/api/title/tt2536602"
        }
    ]
}